VertexLitGeneric
{
	$model 					"1"
	$basetexture		 	"spacecombat2\ltbrandon\crystals\diffuse_detail"
	$basetexturetransform	"center .5 .5 scale 7 7 rotate 0 translate 0 0"
	$bumpmap				"spacecombat2\ltbrandon\crystals\normal_detail"
	$bumptransform			"center .5 .5 scale 7 7 rotate 0 translate 0 0"
	$envmap 				env_cubemap
	$envmaptint				"[0.55 0.55 0.7]"
	$color2					"[0.6 0.75 0.73]"
	$surfaceprop			"metal"
	$phong 1
	$halflambert 1
}