"VertexLitGeneric"
{
	"$baseTexture"		"models\chipstiks_ls3_models/metal"
	"$envmap" 		"env_cubemap"
	"$envmapcontrast"		"1"
	"$envmapmask"		"models\chipstiks_ls3_models/metal"
	"$envmapsaturation" 	"0.3"



}
